{
    "name": "GameControl",
    "maps": [
        {
            "name": "Player",
            "id": "34bf6b4b-34b2-447d-80d5-664d2c021f03",
            "actions": [
                {
                    "name": "Collect",
                    "type": "Button",
                    "id": "c82a7b48-6e77-4cae-9153-a093b38e6371",
                    "expectedControlType": "Button",
                    "processors": "",
                    "interactions": ""
                },
                {
                    "name": "Release",
                    "type": "Button",
                    "id": "5596a2bf-f716-43ad-848a-a438b3389745",
                    "expectedControlType": "Button",
                    "processors": "",
                    "interactions": ""
                },
                {
                    "name": "Movement",
                    "type": "Value",
                    "id": "3e9d4473-931f-4959-86df-3390b834722a",
                    "expectedControlType": "Vector2",
                    "processors": "",
                    "interactions": ""
                },
                {
                    "name": "Accelerate",
                    "type": "Button",
                    "id": "d76fe59d-ec64-4d95-b7b3-d39660decea1",
                    "expectedControlType": "Button",
                    "processors": "",
                    "interactions": ""
                },
                {
                    "name": "Viewport",
                    "type": "Value",
                    "id": "01785cd6-e7c8-4090-96e9-a724bca32e77",
                    "expectedControlType": "Vector2",
                    "processors": "",
                    "interactions": ""
                },
                {
                    "name": "Pause",
                    "type": "Button",
                    "id": "341ca7c2-a0cd-474c-96cb-e307f1564fb2",
                    "expectedControlType": "Button",
                    "processors": "",
                    "interactions": ""
                }
            ],
            "bindings": [
                {
                    "name": "",
                    "id": "97a36f82-3122-4c5e-8d7d-a123dfc8f576",
                    "path": "<Keyboard>/space",
                    "interactions": "",
                    "processors": "",
                    "groups": "",
                    "action": "Collect",
                    "isComposite": false,
                    "isPartOfComposite": false
                },
                {
                    "name": "",
                    "id": "c667c1c5-3292-4ac2-8c73-9e2c284f5238",
                    "path": "<XInputController>/buttonSouth",
                    "interactions": "",
                    "processors": "",
                    "groups": "",
                    "action": "Collect",
                    "isComposite": false,
                    "isPartOfComposite": false
                },
                {
                    "name": "",
                    "id": "6fc4e3c3-4086-4d4b-9978-9e7e90fe7972",
                    "path": "<SwitchProControllerHID>/buttonEast",
                    "interactions": "",
                    "processors": "",
                    "groups": "",
                    "action": "Collect",
                    "isComposite": false,
                    "isPartOfComposite": false
                },
                {
                    "name": "",
                    "id": "07d6e853-9fd9-44b1-8c14-4e3ab836ba11",
                    "path": "<DualShockGamepad>/buttonSouth",
                    "interactions": "",
                    "processors": "",
                    "groups": "",
                    "action": "Collect",
                    "isComposite": false,
                    "isPartOfComposite": false
                },
                {
                    "name": "",
                    "id": "dbc5c39e-8095-415b-8374-d6450a06bdac",
                    "path": "<Keyboard>/f",
                    "interactions": "",
                    "processors": "",
                    "groups": "",
                    "action": "Release",
                    "isComposite": false,
                    "isPartOfComposite": false
                },
                {
                    "name": "",
                    "id": "e66110dd-4a31-4bae-87a9-946fe958e64d",
                    "path": "<XInputController>/buttonEast",
                    "interactions": "",
                    "processors": "",
                    "groups": "",
                    "action": "Release",
                    "isComposite": false,
                    "isPartOfComposite": false
                },
                {
                    "name": "",
                    "id": "2b501067-4515-4192-bd4f-d68ac924660f",
                    "path": "<SwitchProControllerHID>/buttonSouth",
                    "interactions": "",
                    "processors": "",
                    "groups": "",
                    "action": "Release",
                    "isComposite": false,
                    "isPartOfComposite": false
                },
                {
                    "name": "",
                    "id": "0a270d41-7942-4f3c-bb84-798fc307bacf",
                    "path": "<DualShockGamepad>/buttonEast",
                    "interactions": "",
                    "processors": "",
                    "groups": "",
                    "action": "Release",
                    "isComposite": false,
                    "isPartOfComposite": false
                },
                {
                    "name": "",
                    "id": "84962a0b-93cc-4c37-a93a-127067d0b4da",
                    "path": "<Gamepad>/leftStick",
                    "interactions": "",
                    "processors": "",
                    "groups": "",
                    "action": "Movement",
                    "isComposite": false,
                    "isPartOfComposite": false
                },
                {
                    "name": "WASD",
                    "id": "476266d7-3681-4a4a-998f-bf7628d312c9",
                    "path": "2DVector",
                    "interactions": "",
                    "processors": "",
                    "groups": "",
                    "action": "Movement",
                    "isComposite": true,
                    "isPartOfComposite": false
                },
                {
                    "name": "up",
                    "id": "147fc159-76e4-4bf2-9c70-4759444d2ef9",
                    "path": "<Keyboard>/w",
                    "interactions": "",
                    "processors": "",
                    "groups": "",
                    "action": "Movement",
                    "isComposite": false,
                    "isPartOfComposite": true
                },
                {
                    "name": "down",
                    "id": "0220b97d-8b28-4153-8776-c3864970e734",
                    "path": "<Keyboard>/s",
                    "interactions": "",
                    "processors": "",
                    "groups": "",
                    "action": "Movement",
                    "isComposite": false,
                    "isPartOfComposite": true
                },
                {
                    "name": "left",
                    "id": "1f624f7c-57d7-4a53-89a4-79c64c5254bd",
                    "path": "<Keyboard>/a",
                    "interactions": "",
                    "processors": "",
                    "groups": "",
                    "action": "Movement",
                    "isComposite": false,
                    "isPartOfComposite": true
                },
                {
                    "name": "right",
                    "id": "df758736-ff53-443b-80b6-4d734908eafc",
                    "path": "<Keyboard>/d",
                    "interactions": "",
                    "processors": "",
                    "groups": "",
                    "action": "Movement",
                    "isComposite": false,
                    "isPartOfComposite": true
                },
                {
                    "name": "Arrows",
                    "id": "a9ea72ec-9054-4526-ab7a-f63bc46af8a9",
                    "path": "2DVector",
                    "interactions": "",
                    "processors": "",
                    "groups": "",
                    "action": "Movement",
                    "isComposite": true,
                    "isPartOfComposite": false
                },
                {
                    "name": "up",
                    "id": "c5dd5343-1729-4942-9f5e-77156b0fc580",
                    "path": "<Keyboard>/upArrow",
                    "interactions": "",
                    "processors": "",
                    "groups": "",
                    "action": "Movement",
                    "isComposite": false,
                    "isPartOfComposite": true
                },
                {
                    "name": "down",
                    "id": "48821dc0-012b-4312-8b82-b1161c1179d6",
                    "path": "<Keyboard>/downArrow",
                    "interactions": "",
                    "processors": "",
                    "groups": "",
                    "action": "Movement",
                    "isComposite": false,
                    "isPartOfComposite": true
                },
                {
                    "name": "left",
                    "id": "c392c740-3d49-4723-99fe-12de29a8daeb",
                    "path": "<Keyboard>/leftArrow",
                    "interactions": "",
                    "processors": "",
                    "groups": "",
                    "action": "Movement",
                    "isComposite": false,
                    "isPartOfComposite": true
                },
                {
                    "name": "right",
                    "id": "5482a4de-e897-4373-87fb-767c6389e32c",
                    "path": "<Keyboard>/rightArrow",
                    "interactions": "",
                    "processors": "",
                    "groups": "",
                    "action": "Movement",
                    "isComposite": false,
                    "isPartOfComposite": true
                },
                {
                    "name": "",
                    "id": "55e3d9fb-d12b-411e-803f-d3dc2ee960f0",
                    "path": "<Gamepad>/leftStickPress",
                    "interactions": "",
                    "processors": "",
                    "groups": "",
                    "action": "Accelerate",
                    "isComposite": false,
                    "isPartOfComposite": false
                },
                {
                    "name": "",
                    "id": "20d8ea74-bc31-4d10-ad89-1e882891b39a",
                    "path": "<Keyboard>/leftShift",
                    "interactions": "",
                    "processors": "",
                    "groups": "",
                    "action": "Accelerate",
                    "isComposite": false,
                    "isPartOfComposite": false
                },
                {
                    "name": "",
                    "id": "837d71eb-6678-41d0-8ca8-ecd960dd775e",
                    "path": "<Mouse>/delta",
                    "interactions": "",
                    "processors": "",
                    "groups": "",
                    "action": "Viewport",
                    "isComposite": false,
                    "isPartOfComposite": false
                },
                {
                    "name": "",
                    "id": "3e5120db-705b-4286-a8a1-ce3ba5a9e8a5",
                    "path": "<Keyboard>/p",
                    "interactions": "",
                    "processors": "",
                    "groups": "",
                    "action": "Pause",
                    "isComposite": false,
                    "isPartOfComposite": false
                },
                {
                    "name": "",
                    "id": "b7f6e09e-a09a-4946-a272-be8c2be97bbe",
                    "path": "<XInputController>/start",
                    "interactions": "",
                    "processors": "",
                    "groups": "",
                    "action": "Pause",
                    "isComposite": false,
                    "isPartOfComposite": false
                },
                {
                    "name": "",
                    "id": "5ad69e41-bdf7-492b-97d7-08435498eb9f",
                    "path": "<DualShockGamepad>/start",
                    "interactions": "",
                    "processors": "",
                    "groups": "",
                    "action": "Pause",
                    "isComposite": false,
                    "isPartOfComposite": false
                },
                {
                    "name": "",
                    "id": "3747aadd-7eee-4cd3-be64-de23cbc0e9bd",
                    "path": "<SwitchProControllerHID>/start",
                    "interactions": "",
                    "processors": "",
                    "groups": "",
                    "action": "Pause",
                    "isComposite": false,
                    "isPartOfComposite": false
                }
            ]
        }
    ],
    "controlSchemes": []
}